<?xml version="1.0" encoding="UTF-16"?>
<!DOCTYPE svg PUBLIC "-//W3C//DTD SVG 1.1//EN" "http://www.w3.org/Graphics/SVG/1.1/DTD/svg11.dtd">
<!-- Creator: CorelDRAW 2019 (64-Bit) -->
<svg xmlns="http://www.w3.org/2000/svg" xml:space="preserve" width="4.4141mm" height="5.1578mm" version="1.1" style="shape-rendering:geometricPrecision; text-rendering:geometricPrecision; image-rendering:optimizeQuality; fill-rule:evenodd; clip-rule:evenodd"
viewBox="0 0 10.06 11.76"
 xmlns:xlink="http://www.w3.org/1999/xlink">
 <defs>
  <style type="text/css">
   <![CDATA[
    .str0 {stroke:white;stroke-width:0.46;stroke-miterlimit:22.9256}
    .fil1 {fill:#FEFEFE}
    .fil0 {fill:#EF7F1A}
   ]]>
  </style>
 </defs>
 <g id="Layer_x0020_1">
  <metadata id="CorelCorpID_0Corel-Layer"/>
  <g id="_2636172278176">
   <path class="fil0 str0" d="M8.77 0.23l-7.47 0c-0.59,0 -1.07,0.48 -1.07,1.07l0 7.47c0,0.59 0.48,1.07 1.07,1.07l2.13 0 1.6 1.6 1.6 -1.6 2.13 0c0.59,0 1.07,-0.48 1.07,-1.07l0 -7.47c0,-0.59 -0.48,-1.07 -1.07,-1.07z"/>
   <rect class="fil1" x="2.25" y="3.97" width="5.55" height="2.11" rx="0.3" ry="0.3"/>
   <circle class="fil0" cx="3.41" cy="5.12" r="0.63"/>
   <circle class="fil0" cx="5.51" cy="5.03" r="0.8"/>
   <circle class="fil1" cx="3.41" cy="5.12" r="0.31"/>
   <circle class="fil1" cx="5.51" cy="5.03" r="0.31"/>
   <circle class="fil0" cx="7.08" cy="5.03" r="0.31"/>
  </g>
 </g>
</svg>
