<?xml version="1.0" encoding="UTF-16"?>
<!DOCTYPE svg PUBLIC "-//W3C//DTD SVG 1.1//EN" "http://www.w3.org/Graphics/SVG/1.1/DTD/svg11.dtd">
<!-- Creator: CorelDRAW 2019 (64-Bit) -->
<svg xmlns="http://www.w3.org/2000/svg" xml:space="preserve" width="4.4141mm" height="5.1578mm" version="1.1" style="shape-rendering:geometricPrecision; text-rendering:geometricPrecision; image-rendering:optimizeQuality; fill-rule:evenodd; clip-rule:evenodd"
viewBox="0 0 10.06 11.76"
 xmlns:xlink="http://www.w3.org/1999/xlink">
 <defs>
  <style type="text/css">
   <![CDATA[
    .str0 {stroke:white;stroke-width:0.46;stroke-miterlimit:22.9256}
    .fil0 {fill:#EF7F1A}
    .fil1 {fill:#FEFEFE;fill-rule:nonzero}
   ]]>
  </style>
 </defs>
 <g id="Layer_x0020_1">
  <metadata id="CorelCorpID_0Corel-Layer"/>
  <g id="_2636172226784">
   <path class="fil0 str0" d="M8.77 0.23l-7.47 0c-0.59,0 -1.07,0.48 -1.07,1.07l0 7.47c0,0.59 0.48,1.07 1.07,1.07l2.13 0 1.6 1.6 1.6 -1.6 2.13 0c0.59,0 1.07,-0.48 1.07,-1.07l0 -7.47c0,-0.59 -0.48,-1.07 -1.07,-1.07z"/>
   <path class="fil1" d="M7.95 4.16l-0.71 0 0 -0.16c0,-0.05 -0.04,-0.09 -0.09,-0.09 -0.05,0 -0.09,0.04 -0.09,0.09l0 0.16 -0.71 0c-0.05,0 -0.09,0.04 -0.09,0.09 0,0.05 0.04,0.09 0.09,0.09l0.71 0 0 0.27 -0.22 0c-0.05,0 -0.09,0.04 -0.09,0.09l0 0.09 -2.38 0c-0.05,0 -0.09,0.04 -0.09,0.09 0,0.05 0.04,0.09 0.09,0.09l2.38 0 0 0.18 -0.44 0c-0.27,0 -0.52,0.17 -0.61,0.42 -0.07,0.19 -0.26,0.33 -0.47,0.33l-0.41 0c-0.21,0 -0.4,-0.13 -0.47,-0.33 -0.09,-0.25 -0.34,-0.42 -0.61,-0.42l-0.44 0 0 -0.18 0.71 0c0.05,0 0.09,-0.04 0.09,-0.09 0,-0.05 -0.04,-0.09 -0.09,-0.09l-0.71 0 0 -0.09c0,-0.05 -0.04,-0.09 -0.09,-0.09l-0.22 0 0 -0.27 0.71 0c0.05,0 0.09,-0.04 0.09,-0.09 0,-0.05 -0.04,-0.09 -0.09,-0.09l-0.71 0 0 -0.16c0,-0.05 -0.04,-0.09 -0.09,-0.09 -0.05,0 -0.09,0.04 -0.09,0.09l0 0.16 -0.71 0c-0.05,0 -0.09,0.04 -0.09,0.09 0,0.05 0.04,0.09 0.09,0.09l0.71 0 0 0.27 -0.22 0c-0.05,0 -0.09,0.04 -0.09,0.09l0 0.57c0,0.22 0.18,0.39 0.39,0.39 0.2,0 0.36,-0.15 0.39,-0.34l0.44 0c0.2,0 0.38,0.12 0.45,0.31 0.01,0.02 0.02,0.05 0.03,0.07 -0.12,0.06 -0.32,0.17 -0.52,0.37 -0.27,0.27 -0.59,0.74 -0.61,1.51l-0.2 0c-0.05,0 -0.09,0.04 -0.09,0.09 0,0.05 0.04,0.09 0.09,0.09l0.29 0c0.05,0 0.09,-0.04 0.09,-0.09 0,-0.61 0.19,-1.1 0.55,-1.47 0.2,-0.2 0.41,-0.31 0.5,-0.35 0.13,0.14 0.31,0.22 0.5,0.22l0.12 0 0 0.29 -0.27 0c-0.18,0 -0.32,0.15 -0.32,0.32l0 0.45c0,0.18 0.15,0.32 0.32,0.32l0.19 0c0.05,0 0.09,-0.04 0.09,-0.09 0,-0.05 -0.04,-0.09 -0.09,-0.09l-0.19 0c-0.08,0 -0.15,-0.07 -0.15,-0.15l0 -0.45c0,-0.08 0.07,-0.15 0.15,-0.15l0.72 0c0.08,0 0.15,0.07 0.15,0.15l0 0.45c0,0.08 -0.07,0.15 -0.15,0.15l-0.17 0c-0.05,0 -0.09,0.04 -0.09,0.09 0,0.05 0.04,0.09 0.09,0.09l0.17 0c0.18,0 0.32,-0.15 0.32,-0.32l0 -0.45c0,-0.18 -0.15,-0.32 -0.32,-0.32l-0.27 0 0 -0.29 0.12 0c0.19,0 0.37,-0.08 0.5,-0.22 0.1,0.04 0.3,0.15 0.5,0.35 0.37,0.37 0.55,0.86 0.55,1.47 0,0.05 0.04,0.09 0.09,0.09l0.29 0c0.05,0 0.09,-0.04 0.09,-0.09 0,-0.05 -0.04,-0.09 -0.09,-0.09l-0.2 0c-0.02,-0.77 -0.34,-1.24 -0.61,-1.51 -0.2,-0.2 -0.4,-0.31 -0.52,-0.37 0.01,-0.02 0.02,-0.05 0.03,-0.07 0.07,-0.19 0.25,-0.31 0.45,-0.31l0.44 0c0.03,0.19 0.19,0.34 0.39,0.34 0.22,0 0.39,-0.18 0.39,-0.39l0 -0.57c0,-0.05 -0.04,-0.09 -0.09,-0.09l-0.22 0 0 -0.27 0.71 0c0.05,0 0.09,-0.04 0.09,-0.09 0,-0.05 -0.04,-0.09 -0.09,-0.09l0 0zm-4.81 1.1c0,0.12 -0.1,0.22 -0.22,0.22 -0.12,0 -0.22,-0.1 -0.22,-0.22l0 -0.48 0.43 0 0 0.48zm4.23 0c0,0.12 -0.1,0.22 -0.22,0.22 -0.12,0 -0.22,-0.1 -0.22,-0.22l0 -0.48 0.43 0 0 0.48z"/>
  </g>
 </g>
</svg>
