<?xml version="1.0" encoding="UTF-16"?>
<!DOCTYPE svg PUBLIC "-//W3C//DTD SVG 1.1//EN" "http://www.w3.org/Graphics/SVG/1.1/DTD/svg11.dtd">
<!-- Creator: CorelDRAW 2019 (64-Bit) -->
<svg xmlns="http://www.w3.org/2000/svg" xml:space="preserve" width="4.4141mm" height="5.1578mm" version="1.1" style="shape-rendering:geometricPrecision; text-rendering:geometricPrecision; image-rendering:optimizeQuality; fill-rule:evenodd; clip-rule:evenodd"
viewBox="0 0 7.89 9.22"
 xmlns:xlink="http://www.w3.org/1999/xlink">
 <defs>
  <style type="text/css">
   <![CDATA[
    .str0 {stroke:white;stroke-width:0.36;stroke-miterlimit:22.9256}
    .fil0 {fill:#EF7F1A}
    .fil1 {fill:#FEFEFE;fill-rule:nonzero}
   ]]>
  </style>
 </defs>
 <g id="Layer_x0020_1">
  <metadata id="CorelCorpID_0Corel-Layer"/>
  <g id="_2638021117696">
   <path class="fil0 str0" d="M6.87 0.18l-5.86 0c-0.46,0 -0.84,0.37 -0.84,0.84l0 5.86c0,0.46 0.37,0.84 0.84,0.84l1.67 0 1.26 1.26 1.26 -1.26 1.67 0c0.46,0 0.84,-0.37 0.84,-0.84l0 -5.86c0,-0.46 -0.37,-0.84 -0.84,-0.84z"/>
   <g>
    <path class="fil1" d="M3.94 2.87c0.29,0 0.53,0.24 0.53,0.53 0,0.29 -0.24,0.53 -0.53,0.53 -0.29,0 -0.53,-0.24 -0.53,-0.53 0,-0.29 0.24,-0.53 0.53,-0.53zm0 0.89c0.2,0 0.35,-0.16 0.35,-0.35 0,-0.2 -0.16,-0.35 -0.35,-0.35 -0.2,0 -0.35,0.16 -0.35,0.35 0,0.2 0.16,0.35 0.35,0.35z"/>
    <path class="fil1" d="M3.86 3.32c0.05,0 0.09,0.04 0.09,0.09 0.05,0 0.09,0.04 0.09,0.09 0,0.05 -0.04,0.09 -0.09,0.09 -0.1,0 -0.18,-0.08 -0.18,-0.18 0,-0.05 0.04,-0.09 0.09,-0.09z"/>
    <path class="fil1" d="M5.98 5.18l-4.07 0c-0.05,0 -0.09,-0.04 -0.09,-0.09l0 -0.62c0,-0.2 0.16,-0.35 0.35,-0.35l0 -0.35c0,-0.98 0.79,-1.77 1.77,-1.77 0.98,0 1.77,0.79 1.77,1.77l0 0.35c0.2,0 0.35,0.16 0.35,0.35l0 0.62c0,0.05 -0.04,0.09 -0.09,0.09zm-0.44 -1.42c0,-0.88 -0.72,-1.59 -1.59,-1.59 -0.88,0 -1.59,0.72 -1.59,1.59l0 0.35 1.07 0c-0.22,-0.16 -0.36,-0.42 -0.36,-0.71 0,-0.49 0.4,-0.89 0.89,-0.89 0.49,0 0.89,0.4 0.89,0.89 0,0.29 -0.14,0.55 -0.36,0.71l1.07 0 0 -0.35zm-1.59 0.35c0.39,0 0.71,-0.32 0.71,-0.71 0,-0.39 -0.32,-0.71 -0.71,-0.71 -0.39,0 -0.71,0.32 -0.71,0.71 0,0.39 0.32,0.71 0.71,0.71zm1.95 0.35c0,-0.1 -0.08,-0.18 -0.18,-0.18l-3.54 0c-0.1,0 -0.18,0.08 -0.18,0.18l0 0.53 3.9 0 0 -0.53z"/>
    <circle class="fil1" cx="5.1" cy="3.85" r="0.09"/>
   </g>
  </g>
 </g>
</svg>
