<?xml version="1.0" encoding="UTF-16"?>
<!DOCTYPE svg PUBLIC "-//W3C//DTD SVG 1.1//EN" "http://www.w3.org/Graphics/SVG/1.1/DTD/svg11.dtd">
<!-- Creator: CorelDRAW 2019 (64-Bit) -->
<svg xmlns="http://www.w3.org/2000/svg" xml:space="preserve" width="3.4413mm" height="3.4413mm" version="1.1" style="shape-rendering:geometricPrecision; text-rendering:geometricPrecision; image-rendering:optimizeQuality; fill-rule:evenodd; clip-rule:evenodd"
viewBox="0 0 24.53 24.53"
 xmlns:xlink="http://www.w3.org/1999/xlink">
 <defs>
  <style type="text/css">
   <![CDATA[
    .fil0 {fill:#EF7F1A}
    .fil1 {fill:#FEFEFE;fill-rule:nonzero}
   ]]>
  </style>
 </defs>
 <g id="Layer_x0020_1">
  <metadata id="CorelCorpID_0Corel-Layer"/>
  <g id="_2638001866816">
   <circle class="fil0" cx="12.27" cy="12.27" r="12.27"/>
   <path class="fil1" d="M18.05 14.25l-2.78 0c-0.33,0 -0.6,0.27 -0.6,0.6l0 1.59c0,0.33 0.27,0.6 0.6,0.6l0.59 0 0 0.4 -0.4 0 0 0.4 2.38 0 0 -0.4 -0.4 0 0 -0.4 0.59 0c0.33,0 0.59,-0.27 0.59,-0.6l0 -1.59c0,-0.33 -0.27,-0.6 -0.59,-0.6zm-2.78 0.4l2.78 0c0.11,0 0.2,0.09 0.2,0.2l0 0.99 -3.17 0 0 -0.99c0,-0.11 0.09,-0.2 0.2,-0.2l0 0zm1.78 2.78l-0.79 0 0 -0.4 0.79 0 0 0.4zm0.99 -0.79l-2.78 0c-0.11,0 -0.2,-0.09 -0.2,-0.2l0 -0.2 3.17 0 0 0.2c0,0.11 -0.09,0.2 -0.2,0.2l0 0z"/>
   <path class="fil1" d="M18.05 9.89l-2.78 0c-0.33,0 -0.6,0.27 -0.6,0.59l0 1.59c0,0.33 0.27,0.6 0.6,0.6l0.59 0 0 0.4 -0.4 0 0 0.4 2.38 0 0 -0.4 -0.4 0 0 -0.4 0.59 0c0.33,0 0.59,-0.27 0.59,-0.6l0 -1.59c0,-0.33 -0.27,-0.59 -0.59,-0.59zm-2.78 0.4l2.78 0c0.11,0 0.2,0.09 0.2,0.2l0 0.99 -3.17 0 0 -0.99c0,-0.11 0.09,-0.2 0.2,-0.2l0 0zm1.78 2.78l-0.79 0 0 -0.4 0.79 0 0 0.4zm0.99 -0.79l-2.78 0c-0.11,0 -0.2,-0.09 -0.2,-0.2l0 -0.2 3.17 0 0 0.2c0,0.11 -0.09,0.2 -0.2,0.2l0 0z"/>
   <path class="fil1" d="M18.05 5.53l-2.78 0c-0.33,0 -0.6,0.27 -0.6,0.59l0 1.59c0,0.33 0.27,0.59 0.6,0.59l0.59 0 0 0.4 -0.4 0 0 0.4 2.38 0 0 -0.4 -0.4 0 0 -0.4 0.59 0c0.33,0 0.59,-0.27 0.59,-0.59l0 -1.59c0,-0.33 -0.27,-0.59 -0.59,-0.59l0 0zm-2.78 0.4l2.78 0c0.11,0 0.2,0.09 0.2,0.2l0 0.99 -3.17 0 0 -0.99c0,-0.11 0.09,-0.2 0.2,-0.2l0 0zm1.78 2.78l-0.79 0 0 -0.4 0.79 0 0 0.4zm0.99 -0.79l-2.78 0c-0.11,0 -0.2,-0.09 -0.2,-0.2l0 -0.2 3.17 0 0 0.2c0,0.11 -0.09,0.2 -0.2,0.2l0 0z"/>
   <polygon class="fil1" points="13.89,11.47 14.28,11.47 14.28,11.87 13.89,11.87 "/>
   <path class="fil1" d="M13.09 7.31l0 3.17c0,0.11 -0.09,0.2 -0.2,0.2l-2.18 0 0 -1.19 -0.4 0 0 -2.38 -3.57 0 0 2.38 -0.4 0 0 3.44 1.39 1.59 0 2.9 1.59 0 0 -2.9 1.39 -1.59 0 -0.27 2.18 0c0.11,0 0.2,0.09 0.2,0.2l0 2.38c0,0.33 0.27,0.59 0.59,0.59l0.59 0 0 -0.4 -0.59 0c-0.11,0 -0.2,-0.09 -0.2,-0.2l0 -2.38c0,-0.33 -0.27,-0.6 -0.59,-0.6l-2.18 0 0 -0.4 2.78 0 0 -0.4 -2.78 0 0 -0.4 2.18 0c0.33,0 0.59,-0.27 0.59,-0.6l0 -3.17c0,-0.11 0.09,-0.2 0.2,-0.2l0.59 0 0 -0.4 -0.59 0c-0.33,0 -0.59,0.27 -0.59,0.59zm-5.07 6.94l-1.04 -1.19 3.09 0 -1.04 1.19 -1.01 0zm-1.28 -1.59l0 -1.98 1.19 0 0 1.19 1.19 0 0 -1.19 1.19 0 0 1.98 -3.57 0zm3.57 -2.78l0 0.4 -1.19 0 0 -0.4 1.19 0zm-1.98 0l0.4 0 0 1.59 -0.4 0 0 -1.59zm1.59 -1.98l-0.4 0 0 -0.4 0.4 0 0 0.4zm-1.98 0l0 -0.4 0.4 0 0 0.4 -0.4 0zm0.79 -0.4l0.4 0 0 0.4 -0.4 0 0 -0.4zm-1.19 0l0 0.4 -0.4 0 0 -0.4 0.4 0zm-0.4 0.79l2.78 0 0 1.19 -0.79 0 -4.16 0 0.4 0 1.78 -1.19zm0.79 1.59l0 0.4 -1.19 0 0 -0.4 1.19 0zm0.2 7.14l0 -2.38 0.79 0 0 2.38 -0.79 0z"/>
  </g>
 </g>
</svg>
