<?xml version="1.0" encoding="UTF-16"?>
<!DOCTYPE svg PUBLIC "-//W3C//DTD SVG 1.1//EN" "http://www.w3.org/Graphics/SVG/1.1/DTD/svg11.dtd">
<!-- Creator: CorelDRAW 2019 (64-Bit) -->
<svg xmlns="http://www.w3.org/2000/svg" xml:space="preserve" width="6.1702mm" height="7.5285mm" version="1.1" style="shape-rendering:geometricPrecision; text-rendering:geometricPrecision; image-rendering:optimizeQuality; fill-rule:evenodd; clip-rule:evenodd"
viewBox="0 0 173.07 211.17"
 xmlns:xlink="http://www.w3.org/1999/xlink">
 <defs>
  <style type="text/css">
   <![CDATA[
    .str0 {stroke:#FEFEFE;stroke-width:2.38;stroke-miterlimit:22.9256}
    .str1 {stroke:#FEFEFE;stroke-width:4.75;stroke-miterlimit:22.9256}
    .fil2 {fill:none}
    .fil0 {fill:#F7AA47}
    .fil1 {fill:#F08143}
    .fil3 {fill:#EF7F1A}
    .fil4 {fill:#FEFEFE;fill-rule:nonzero}
   ]]>
  </style>
    <clipPath id="id0">
     <path d="M86.53 1.19c-47.13,0 -85.35,38.21 -85.35,85.35 0,47.13 38.21,85.35 85.35,85.35 47.13,0 85.35,-38.21 85.35,-85.35 0,-47.13 -38.21,-85.35 -85.35,-85.35z"/>
    </clipPath>
 </defs>
 <g id="Layer_x0020_1">
  <metadata id="CorelCorpID_0Corel-Layer"/>
  <g id="_2638191189680">
   <path class="fil0" d="M86.53 1.19c-47.13,0 -85.35,38.21 -85.35,85.35 0,47.13 38.21,85.35 85.35,85.35 47.13,0 85.35,-38.21 85.35,-85.35 0,-47.13 -38.21,-85.35 -85.35,-85.35z"/>
   <g style="clip-path:url(#id0)">
    <g>
     <rect class="fil1" transform="matrix(2.40392E-14 -0.303341 -0.303341 -2.40392E-14 88.1922 332.504)" width="714.93" height="253.56"/>
     <polygon class="fil1" points="54.52,82.81 -62.82,148.66 -26.25,216.32 91.1,150.48 "/>
    </g>
   </g>
   <path class="fil2 str0" d="M86.53 1.19c-47.13,0 -85.35,38.21 -85.35,85.35 0,47.13 38.21,85.35 85.35,85.35 47.13,0 85.35,-38.21 85.35,-85.35 0,-47.13 -38.21,-85.35 -85.35,-85.35z"/>
   <path class="fil3 str1" d="M86.09 27.81c32.64,0 59.1,28.39 59.1,59.1 0,30.71 -15.57,46.87 -40.64,56.16l-18.46 59.7 -16.54 -59.11c-25.38,-8.05 -42.55,-26.04 -42.55,-56.75 0,-30.71 26.46,-59.1 59.1,-59.1z"/>
   <g>
    <path class="fil4" d="M107.67 94.66l-11.38 0c-1.34,0 -2.44,1.09 -2.44,2.44l0 6.5c0,1.34 1.09,2.44 2.44,2.44l2.44 0 0 1.63 -1.62 0 0 1.62 9.75 0 0 -1.62 -1.62 0 0 -1.63 2.44 0c1.34,0 2.44,-1.09 2.44,-2.44l0 -6.5c0,-1.34 -1.09,-2.44 -2.44,-2.44zm-11.38 1.63l11.38 0c0.45,0 0.81,0.36 0.81,0.81l0 4.06 -13.01 0 0 -4.06c0,-0.45 0.36,-0.81 0.81,-0.81l0 0zm7.32 11.38l-3.25 0 0 -1.63 3.25 0 0 1.63zm4.06 -3.25l-11.38 0c-0.45,0 -0.81,-0.36 -0.81,-0.81l0 -0.81 13.01 0 0 0.81c0,0.45 -0.36,0.81 -0.81,0.81l0 0z"/>
    <path class="fil4" d="M107.67 76.78l-11.38 0c-1.34,0 -2.44,1.09 -2.44,2.44l0 6.5c0,1.34 1.09,2.44 2.44,2.44l2.44 0 0 1.62 -1.62 0 0 1.62 9.75 0 0 -1.62 -1.62 0 0 -1.63 2.44 0c1.34,0 2.44,-1.09 2.44,-2.44l0 -6.5c0,-1.34 -1.09,-2.44 -2.44,-2.44zm-11.38 1.63l11.38 0c0.45,0 0.81,0.36 0.81,0.81l0 4.06 -13.01 0 0 -4.06c0,-0.45 0.36,-0.81 0.81,-0.81l0 0zm7.32 11.38l-3.25 0 0 -1.63 3.25 0 0 1.63zm4.06 -3.25l-11.38 0c-0.45,0 -0.81,-0.36 -0.81,-0.81l0 -0.81 13.01 0 0 0.81c0,0.45 -0.36,0.81 -0.81,0.81l0 0z"/>
    <path class="fil4" d="M107.67 58.9l-11.38 0c-1.34,0 -2.44,1.09 -2.44,2.44l0 6.5c0,1.34 1.09,2.44 2.44,2.44l2.44 0 0 1.62 -1.62 0 0 1.63 9.75 0 0 -1.63 -1.62 0 0 -1.62 2.44 0c1.34,0 2.44,-1.09 2.44,-2.44l0 -6.5c0,-1.34 -1.09,-2.44 -2.44,-2.44l0 0zm-11.38 1.63l11.38 0c0.45,0 0.81,0.36 0.81,0.81l0 4.06 -13.01 0 0 -4.06c0,-0.45 0.36,-0.81 0.81,-0.81l0 0zm7.32 11.38l-3.25 0 0 -1.62 3.25 0 0 1.62zm4.06 -3.25l-11.38 0c-0.45,0 -0.81,-0.36 -0.81,-0.81l0 -0.81 13.01 0 0 0.81c0,0.45 -0.36,0.81 -0.81,0.81l0 0z"/>
    <polygon class="fil4" points="90.6,83.28 92.22,83.28 92.22,84.91 90.6,84.91 "/>
    <path class="fil4" d="M87.35 66.22l0 13c0,0.45 -0.36,0.81 -0.81,0.81l-8.94 0 0 -4.87 -1.62 0 0 -9.76 -14.63 0 0 9.76 -1.63 0 0 14.12 5.69 6.5 0 11.89 6.5 0 0 -11.89 5.69 -6.5 0 -1.12 8.94 0c0.45,0 0.81,0.36 0.81,0.81l0 9.75c0,1.34 1.09,2.44 2.44,2.44l2.44 0 0 -1.62 -2.44 0c-0.45,0 -0.81,-0.36 -0.81,-0.81l0 -9.75c0,-1.35 -1.09,-2.44 -2.44,-2.44l-8.94 0 0 -1.62 11.38 0 0 -1.63 -11.38 0 0 -1.62 8.94 0c1.34,0 2.44,-1.09 2.44,-2.44l0 -13c0,-0.45 0.36,-0.81 0.81,-0.81l2.44 0 0 -1.62 -2.44 0c-1.34,0 -2.44,1.09 -2.44,2.44zm-20.76 28.45l-4.27 -4.87 12.67 0 -4.27 4.87 -4.14 0zm-5.25 -6.5l0 -8.13 4.87 0 0 4.88 4.88 0 0 -4.88 4.88 0 0 8.13 -14.63 0zm14.63 -11.38l0 1.63 -4.88 0 0 -1.63 4.88 0zm-8.13 0l1.62 0 0 6.5 -1.62 0 0 -6.5zm6.5 -8.13l-1.62 0 0 -1.62 1.62 0 0 1.62zm-8.13 0l0 -1.62 1.63 0 0 1.62 -1.63 0zm3.25 -1.62l1.63 0 0 1.62 -1.63 0 0 -1.62zm-4.87 0l0 1.62 -1.63 0 0 -1.62 1.63 0zm-1.63 3.25l11.38 0 0 4.88 -3.25 0 -17.07 0 1.62 0 7.32 -4.88zm3.25 6.5l0 1.63 -4.87 0 0 -1.63 4.87 0zm0.81 29.26l0 -9.75 3.25 0 0 9.75 -3.25 0z"/>
   </g>
  </g>
 </g>
</svg>
