<?xml version="1.0" encoding="UTF-8"?>
<!DOCTYPE svg PUBLIC "-//W3C//DTD SVG 1.1//EN" "http://www.w3.org/Graphics/SVG/1.1/DTD/svg11.dtd">
<!-- Creator: CorelDRAW 2019 (64-Bit) -->
<svg xmlns="http://www.w3.org/2000/svg" xml:space="preserve" width="3.0078mm" height="2.9984mm" version="1.1" style="shape-rendering:geometricPrecision; text-rendering:geometricPrecision; image-rendering:optimizeQuality; fill-rule:evenodd; clip-rule:evenodd"
viewBox="0 0 8.14 8.11"
 xmlns:xlink="http://www.w3.org/1999/xlink">
 <defs>
  <style type="text/css">
   <![CDATA[
    .str0 {stroke:#4A5A75;stroke-width:0.21;stroke-miterlimit:22.9256}
    .fil0 {fill:#4A5A75;fill-rule:nonzero}
   ]]>
  </style>
 </defs>
 <g id="Layer_x0020_1">
  <metadata id="CorelCorpID_0Corel-Layer"/>
  <g id="_2636292031264">
   <path class="fil0 str0" d="M7.12 5.69c-0.04,-0.02 -0.09,-0.01 -0.13,0.03l-1.27 1.27c-0.03,0.03 -0.04,0.08 -0.03,0.13 0.02,0.04 0.06,0.07 0.11,0.07l1.27 0c0.06,0 0.12,-0.05 0.12,-0.12l0 -1.27c0,-0.05 -0.03,-0.09 -0.07,-0.11zm-1.04 1.26l0.87 -0.87 0 0.87 -0.87 0z"/>
   <path class="fil0 str0" d="M7.96 3.82c-0.04,-0.02 -0.09,-0.01 -0.13,0.03l-0.35 0.35 0 -2.37c0,-0.06 -0.05,-0.12 -0.12,-0.12l-0.89 0 0.32 -0.32c0,-0 0,-0 0,-0l0.31 -0.31c0.07,-0.07 0.1,-0.16 0.1,-0.25 0,-0.09 -0.04,-0.18 -0.1,-0.25l-0.36 -0.36c-0.07,-0.07 -0.16,-0.1 -0.25,-0.1 -0.09,0 -0.18,0.04 -0.25,0.1l-0.31 0.31 -0.38 0.38 -0.81 0.81 -3.61 0 0 -1.15c0,-0.06 -0.05,-0.12 -0.12,-0.12 -0.5,0 -0.92,0.41 -0.92,0.92l0 4.95c0,0.01 0,0.02 0,0.02 0.02,0.21 0.11,0.41 0.26,0.56 0.17,0.16 0.38,0.25 0.62,0.25l3.56 0 -0.67 0.67c-0.03,0.03 -0.04,0.08 -0.03,0.13 0.02,0.04 0.06,0.07 0.11,0.07l3.96 0c0.06,0 0.12,-0.05 0.12,-0.12l0 -3.96c0,-0.05 -0.03,-0.09 -0.07,-0.11zm-1.55 -3.45c0.05,-0.05 0.13,-0.05 0.17,0l0.36 0.36c0.05,0.05 0.05,0.13 0,0.17l-0.23 0.23 -0.53 -0.53 0.23 -0.23zm-0.4 0.4l0.53 0.53 -0.21 0.21 -0.53 -0.53 0.21 -0.21zm1.78 4.47l-0.21 0c-0.06,0 -0.12,0.05 -0.12,0.12 0,0.06 0.05,0.12 0.12,0.12l0.21 0 0 0.35 -0.21 0c-0.06,0 -0.12,0.05 -0.12,0.12 0,0.06 0.05,0.12 0.12,0.12l0.21 0 0 0.35 -0.21 0c-0.06,0 -0.12,0.05 -0.12,0.12 0,0.06 0.05,0.12 0.12,0.12l0.21 0 0 0.35 -0.21 0c-0.06,0 -0.12,0.05 -0.12,0.12 0,0.06 0.05,0.12 0.12,0.12l0.21 0 0 0.56 -3.57 0 1.18 -1.18c0.05,-0.05 0.05,-0.12 0,-0.16 -0.01,-0.01 -0.01,-0.01 -0.02,-0.01 -0.05,-0.03 -0.11,-0.03 -0.15,0.01l-0.47 0.47 -3.79 0c-0.35,0 -0.64,-0.28 -0.65,-0.63 0,-0.02 0,-0.04 0.01,-0.07 0,-0 0,-0 0,-0 0,-0.01 0,-0.02 0,-0.03 0,-0 0,-0 0,-0 0,-0.01 0,-0.02 0.01,-0.03 0,-0 0,-0.01 0,-0.01 0,-0.01 0,-0.02 0.01,-0.02 0,-0 0,-0.01 0,-0.01 0,-0.01 0,-0.01 0.01,-0.02 0,-0.01 0,-0.01 0.01,-0.02 0,-0 0,-0.01 0,-0.01 0,-0.01 0.01,-0.02 0.01,-0.02 0,-0 0,-0 0,-0.01 0,-0.01 0.01,-0.02 0.01,-0.03 0,-0 0,-0 0,-0 0.09,-0.19 0.27,-0.33 0.48,-0.37 0,-0 0,-0 0,-0 0.01,-0 0.02,-0 0.03,-0.01 0,-0 0,-0 0,-0 0.01,-0 0.02,-0 0.03,-0 0,-0 0.01,-0 0.01,-0 0.01,-0 0.02,-0 0.03,-0 0,0 0.01,-0 0.01,-0 0.01,-0 0.02,-0 0.03,-0 0.06,0 0.12,-0.05 0.12,-0.12l0 -0.84c0,-0.06 -0.05,-0.12 -0.12,-0.12 -0.06,0 -0.12,0.05 -0.12,0.12l0 0.74c-0.2,0.02 -0.38,0.11 -0.52,0.25 -0.02,0.01 -0.03,0.03 -0.04,0.05l0 -4.34c0,-0.34 0.25,-0.62 0.57,-0.67l0 1.14 0 2.37 0 0c0,0.06 0.05,0.12 0.12,0.12 0.06,0 0.12,-0.05 0.12,-0.12l0 0 0 -2.25 3.38 0 -0.64 0.64c-0.05,0.05 -0.05,0.12 0,0.16 0.05,0.05 0.12,0.05 0.16,0l0.84 -0.84c0,0 0,0 0,0l0.76 -0.76 0.53 0.53 -0.06 0.06c0,0 0,0 -0,0l-2.35 2.35 -0.53 -0.53 0.46 -0.46c0.05,-0.05 0.05,-0.12 0,-0.16 -0.05,-0.05 -0.12,-0.05 -0.16,0l-0.54 0.54c-0,0 -0.01,0.01 -0.01,0.01 -0,0 -0,0 -0,0 -0,0 -0,0 -0,0.01 -0,0 -0,0 -0,0 -0,0 -0,0 -0,0.01 -0,0 -0,0 -0,0 -0,0 -0,0 -0,0.01 -0,0 -0,0 -0,0l-0.23 0.64 -0.15 0.44c-0,0.01 -0,0.01 -0,0.02l-0.39 0c-0.06,0 -0.12,0.05 -0.12,0.12 0,0.06 0.05,0.12 0.12,0.12l3.22 0c0.06,0 0.12,-0.05 0.12,-0.12 0,-0.06 -0.05,-0.12 -0.12,-0.12l-2.31 0 0.71 -0.25c0,0 0,-0 0,-0 0,-0 0.01,-0 0.01,-0 0,-0 0,-0 0,-0 0,-0 0.01,-0 0.01,-0 0,-0 0,-0 0,-0 0,-0 0.01,-0 0.01,-0.01 0,-0 0,-0 0,-0 0,-0 0.01,-0.01 0.01,-0.01l2.4 -2.4 1.01 0 0 2.49 -1.67 1.67c-0.05,0.05 -0.05,0.12 0,0.16 0,0 0.01,0.01 0.01,0.01 0.02,0.02 0.05,0.03 0.07,0.03 0.03,0 0.05,-0.01 0.07,-0.03 0,-0 0.01,-0.01 0.01,-0.01 0,0 0,0 0,0l2.05 -2.05 0 1.03zm-4.25 -1.03l-0.33 0.12 -0.22 -0.22 0.12 -0.33 0.44 0.44z"/>
  </g>
 </g>
</svg>
