<?xml version="1.0" encoding="UTF-16"?>
<!DOCTYPE svg PUBLIC "-//W3C//DTD SVG 1.1//EN" "http://www.w3.org/Graphics/SVG/1.1/DTD/svg11.dtd">
<!-- Creator: CorelDRAW 2019 (64-Bit) -->
<svg xmlns="http://www.w3.org/2000/svg" xml:space="preserve" width="6.1702mm" height="7.5285mm" version="1.1" style="shape-rendering:geometricPrecision; text-rendering:geometricPrecision; image-rendering:optimizeQuality; fill-rule:evenodd; clip-rule:evenodd"
viewBox="0 0 19.35 23.61"
 xmlns:xlink="http://www.w3.org/1999/xlink">
 <defs>
  <style type="text/css">
   <![CDATA[
    .str0 {stroke:#FEFEFE;stroke-width:0.27;stroke-miterlimit:22.9256}
    .str1 {stroke:#FEFEFE;stroke-width:0.53;stroke-miterlimit:22.9256}
    .fil2 {fill:none}
    .fil0 {fill:#5CA595}
    .fil3 {fill:#009846}
    .fil1 {fill:#5AA700}
    .fil4 {fill:#FEFEFE;fill-rule:nonzero}
   ]]>
  </style>
    <clipPath id="id0">
     <path d="M9.68 0.13c-5.27,0 -9.54,4.27 -9.54,9.54 0,5.27 4.27,9.54 9.54,9.54 5.27,0 9.54,-4.27 9.54,-9.54 0,-5.27 -4.27,-9.54 -9.54,-9.54z"/>
    </clipPath>
 </defs>
 <g id="Layer_x0020_1">
  <metadata id="CorelCorpID_0Corel-Layer"/>
  <g id="_2638267917024">
   <path class="fil0" d="M9.68 0.13c-5.27,0 -9.54,4.27 -9.54,9.54 0,5.27 4.27,9.54 9.54,9.54 5.27,0 9.54,-4.27 9.54,-9.54 0,-5.27 -4.27,-9.54 -9.54,-9.54z"/>
   <g style="clip-path:url(#id0)">
    <g>
     <rect class="fil1" transform="matrix(5.94555E-14 -0.750246 -0.750246 -5.94555E-14 9.6646 37.5713)" width="79.94" height="28.35"/>
     <rect class="fil1" transform="matrix(0.382782 -0.645249 -0.645249 -0.382782 8.93089 13.2134)" width="79.94" height="28.35"/>
    </g>
   </g>
   <path class="fil2 str0" d="M9.68 0.13c-5.27,0 -9.54,4.27 -9.54,9.54 0,5.27 4.27,9.54 9.54,9.54 5.27,0 9.54,-4.27 9.54,-9.54 0,-5.27 -4.27,-9.54 -9.54,-9.54z"/>
   <path class="fil3 str1" d="M9.63 3.11c3.65,0 6.61,3.17 6.61,6.61 0,3.43 -1.74,5.24 -4.54,6.28l-2.06 6.68 -1.85 -6.61c-2.84,-0.9 -4.76,-2.91 -4.76,-6.35 0,-3.43 2.96,-6.61 6.61,-6.61z"/>
   <path class="fil4" d="M12.65 10.36l-0.04 0 0 -0.12c0,-0.14 -0.09,-0.27 -0.22,-0.32l0 -1.56c0,-0.57 -0.46,-1.03 -1.03,-1.03l-0.25 0c-0.57,0 -1.03,0.46 -1.03,1.03l0 1.56c-0.14,0.04 -0.24,0.17 -0.24,0.32l0 0.12 -0.32 0 0 -0.12c0,-0.14 -0.09,-0.27 -0.22,-0.32l0 -1.56c0,-0.57 -0.46,-1.03 -1.03,-1.03l-0.25 0c-0.57,0 -1.03,0.46 -1.03,1.03l0 0.25c0,0.05 0.04,0.09 0.09,0.09 0.05,0 0.09,-0.04 0.09,-0.09l0 -0.25c0,-0.46 0.38,-0.84 0.84,-0.84l0.25 0c0.46,0 0.84,0.38 0.84,0.84l0 1.54 -1.93 0 0 -0.87c0,-0.05 -0.04,-0.09 -0.09,-0.09 -0.05,0 -0.09,0.04 -0.09,0.09l0 0.89c-0.14,0.04 -0.24,0.17 -0.24,0.32l0 0.12 -0.04 0c-0.12,0 -0.23,0.1 -0.23,0.23l0 0.4c0,0.12 0.1,0.23 0.23,0.23l0.16 0 0 1.18c-0.15,0.07 -0.25,0.23 -0.25,0.4l0 0.19c0,0.07 0.05,0.12 0.12,0.12l0.89 0c0.07,0 0.12,-0.05 0.12,-0.12l0 -0.19c0,-0.18 -0.1,-0.33 -0.25,-0.4l0 -1.18 3.66 0c0.05,0 0.09,-0.04 0.09,-0.09 0,-0.05 -0.04,-0.09 -0.09,-0.09l-4.44 0c-0.02,0 -0.04,-0.02 -0.04,-0.04l0 -0.4c0,-0.02 0.02,-0.04 0.04,-0.04l0.04 0c0.02,0.08 0.09,0.15 0.18,0.15l2.39 0c0.09,0 0.16,-0.06 0.18,-0.15l0.33 0c0.02,0.08 0.09,0.15 0.18,0.15l2.39 0c0.09,0 0.16,-0.06 0.18,-0.15l0.04 0c0.02,0 0.04,0.02 0.04,0.04l0 0.4c0,0.02 -0.02,0.04 -0.04,0.04l-1.04 0c-0.05,0 -0.09,0.04 -0.09,0.09 0,0.05 0.04,0.09 0.09,0.09l0.27 0 0 1.18c-0.15,0.07 -0.25,0.23 -0.25,0.4l0 0.19c0,0.07 0.05,0.12 0.12,0.12l0.89 0c0.07,0 0.12,-0.05 0.12,-0.12l0 -0.19c0,-0.18 -0.1,-0.33 -0.25,-0.4l0 -1.18 0.15 0c0.12,0 0.23,-0.1 0.23,-0.23l0 -0.4c0,-0.12 -0.1,-0.23 -0.23,-0.23zm-5.06 2.56l-0.75 0 0 -0.12c0,-0.14 0.12,-0.26 0.26,-0.26l0.23 0c0.14,0 0.26,0.12 0.26,0.26l0 0.12 0 0zm-0.25 -0.57c-0,0 -0,0 -0.01,0l-0.23 0c-0,0 -0,0 -0.01,0l0 -1.14 0.24 0 0 1.14zm3.79 -4.82l0.25 0c0.46,0 0.84,0.38 0.84,0.84l0 1.54 -1.93 0 0 -1.54c0,-0.46 0.38,-0.84 0.84,-0.84zm-1.77 2.98l-2.38 0 0 -0.27c0,-0.08 0.07,-0.15 0.15,-0.15l2.08 0c0.08,0 0.15,0.07 0.15,0.15l0 0.27zm3.08 0l-2.38 0 0 -0.27c0,-0.08 0.07,-0.15 0.15,-0.15l2.08 0c0.08,0 0.15,0.07 0.15,0.15l0 0.27zm0.14 2.41l-0.75 0 0 -0.12c0,-0.14 0.12,-0.26 0.26,-0.26l0.23 0c0.14,0 0.26,0.12 0.26,0.26l0 0.12 0 0zm-0.25 -0.57c-0,0 -0,0 -0.01,0l-0.23 0c-0,0 -0,0 -0.01,0l0 -1.14 0.24 0 0 1.14z"/>
   <path class="fil4" d="M7.7 8.54l1.01 0c0.05,0 0.09,-0.04 0.09,-0.09 0,-0.05 -0.04,-0.09 -0.09,-0.09l-1.01 0c-0.05,0 -0.09,0.04 -0.09,0.09 0,0.05 0.04,0.09 0.09,0.09l0 0z"/>
   <path class="fil4" d="M7.7 9.04l1.01 0c0.05,0 0.09,-0.04 0.09,-0.09 0,-0.05 -0.04,-0.09 -0.09,-0.09l-1.01 0c-0.05,0 -0.09,0.04 -0.09,0.09 0,0.05 0.04,0.09 0.09,0.09l0 0z"/>
   <path class="fil4" d="M7.7 9.55l1.01 0c0.05,0 0.09,-0.04 0.09,-0.09 0,-0.05 -0.04,-0.09 -0.09,-0.09l-1.01 0c-0.05,0 -0.09,0.04 -0.09,0.09 0,0.05 0.04,0.09 0.09,0.09l0 0z"/>
   <path class="fil4" d="M10.78 8.54l1.01 0c0.05,0 0.09,-0.04 0.09,-0.09 0,-0.05 -0.04,-0.09 -0.09,-0.09l-1.01 0c-0.05,0 -0.09,0.04 -0.09,0.09 0,0.05 0.04,0.09 0.09,0.09l0 0z"/>
   <path class="fil4" d="M10.78 9.04l1.01 0c0.05,0 0.09,-0.04 0.09,-0.09 0,-0.05 -0.04,-0.09 -0.09,-0.09l-1.01 0c-0.05,0 -0.09,0.04 -0.09,0.09 0,0.05 0.04,0.09 0.09,0.09l0 0z"/>
   <path class="fil4" d="M10.78 9.55l1.01 0c0.05,0 0.09,-0.04 0.09,-0.09 0,-0.05 -0.04,-0.09 -0.09,-0.09l-1.01 0c-0.05,0 -0.09,0.04 -0.09,0.09 0,0.05 0.04,0.09 0.09,0.09l0 0z"/>
  </g>
 </g>
</svg>
