<?xml version="1.0" encoding="UTF-16"?>
<!DOCTYPE svg PUBLIC "-//W3C//DTD SVG 1.1//EN" "http://www.w3.org/Graphics/SVG/1.1/DTD/svg11.dtd">
<!-- Creator: CorelDRAW 2019 (64-Bit) -->
<svg xmlns="http://www.w3.org/2000/svg" xml:space="preserve" width="4.6851mm" height="4.685mm" version="1.1" style="shape-rendering:geometricPrecision; text-rendering:geometricPrecision; image-rendering:optimizeQuality; fill-rule:evenodd; clip-rule:evenodd"
viewBox="0 0 11.73 11.73"
 xmlns:xlink="http://www.w3.org/1999/xlink">
 <defs>
  <style type="text/css">
   <![CDATA[
    .str0 {stroke:#FEFEFE;stroke-width:0.19;stroke-miterlimit:22.9256}
    .fil0 {fill:#EE791C}
    .fil1 {fill:#FEFEFE;fill-rule:nonzero}
   ]]>
  </style>
 </defs>
 <g id="Layer_x0020_1">
  <metadata id="CorelCorpID_0Corel-Layer"/>
  <g id="_2566203688960">
   <circle class="fil0" cx="5.87" cy="5.87" r="5.87"/>
   <g>
    <path class="fil1 str0" d="M8.49 4.27l-2.59 -1.25c-0.02,-0.01 -0.05,-0.01 -0.07,0l-2.59 1.25c-0.03,0.01 -0.05,0.04 -0.05,0.08l0 3.04c0,0.03 0.02,0.06 0.05,0.08l2.59 1.25c0.01,0.01 0.02,0.01 0.04,0.01 0.01,0 0.02,-0 0.04,-0.01l2.59 -1.25c0.03,-0.01 0.05,-0.04 0.05,-0.08l0 -3.04c0,-0.03 -0.02,-0.06 -0.05,-0.08zm-2.63 -1.08l2.4 1.16 -0.7 0.34c-0,-0 -0.01,-0.01 -0.01,-0.01l-2.38 -1.15 0.69 -0.33zm-0.88 0.43l2.4 1.16 -0.49 0.24 -2.39 -1.16 0.49 -0.24zm2.45 1.31l0 0.88 -0.46 0.22 0 -0.88 0.46 -0.22zm0.94 2.4l-2.42 1.17 0 -2.85 0.58 -0.28c0.04,-0.02 0.06,-0.07 0.04,-0.11 -0.02,-0.04 -0.07,-0.06 -0.11,-0.04l-0.59 0.28 -0.23 -0.11c-0.04,-0.02 -0.09,-0 -0.11,0.04 -0.02,0.04 -0,0.09 0.04,0.11l0.22 0.11 0 2.85 -2.42 -1.17 0 -2.85 1.85 0.89c0.01,0.01 0.02,0.01 0.04,0.01 0.03,0 0.06,-0.02 0.08,-0.05 0.02,-0.04 0,-0.09 -0.04,-0.11l-1.81 -0.87 0.83 -0.4 2.51 1.21c0,0 0,0 0,0l0 1c0,0.03 0.01,0.06 0.04,0.07 0.01,0.01 0.03,0.01 0.04,0.01 0.01,0 0.03,-0 0.04,-0.01l0.63 -0.3c0.03,-0.01 0.05,-0.04 0.05,-0.08l0 -1.01 0.77 -0.37 0 2.85z"/>
    <path class="fil1 str0" d="M4.05 7.01l-0.38 -0.18c-0.04,-0.02 -0.09,-0 -0.11,0.04 -0.02,0.04 -0,0.09 0.04,0.11l0.38 0.18c0.01,0.01 0.02,0.01 0.04,0.01 0.03,0 0.06,-0.02 0.08,-0.05 0.02,-0.04 0,-0.09 -0.04,-0.11z"/>
    <path class="fil1 str0" d="M4.4 6.78l-0.73 -0.35c-0.04,-0.02 -0.09,-0 -0.11,0.04 -0.02,0.04 -0,0.09 0.04,0.11l0.73 0.35c0.01,0.01 0.02,0.01 0.04,0.01 0.03,0 0.06,-0.02 0.08,-0.05 0.02,-0.04 0,-0.09 -0.04,-0.11z"/>
   </g>
  </g>
 </g>
</svg>
