<?xml version="1.0" encoding="UTF-16"?>
<!DOCTYPE svg PUBLIC "-//W3C//DTD SVG 1.1//EN" "http://www.w3.org/Graphics/SVG/1.1/DTD/svg11.dtd">
<!-- Creator: CorelDRAW 2019 (64-Bit) -->
<svg xmlns="http://www.w3.org/2000/svg" xml:space="preserve" width="4.6851mm" height="4.6851mm" version="1.1" style="shape-rendering:geometricPrecision; text-rendering:geometricPrecision; image-rendering:optimizeQuality; fill-rule:evenodd; clip-rule:evenodd"
viewBox="0 0 18.39 18.39"
 xmlns:xlink="http://www.w3.org/1999/xlink">
 <defs>
  <style type="text/css">
   <![CDATA[
    .fil0 {fill:#E51A4B}
    .fil1 {fill:#FEFEFE;fill-rule:nonzero}
   ]]>
  </style>
 </defs>
 <g id="Layer_x0020_1">
  <metadata id="CorelCorpID_0Corel-Layer"/>
  <g id="_2326973723520">
   <circle class="fil0" cx="9.19" cy="9.19" r="9.19"/>
   <path class="fil1" d="M6.69 11.35c0.07,0 0.13,-0.06 0.13,-0.13l0 -0.45c0,-0.07 -0.06,-0.13 -0.13,-0.13l-1.84 0 0.79 -0.68c0.65,-0.56 1.11,-1.06 1.11,-1.67 0,-0.82 -0.66,-1.33 -1.5,-1.33 -0.88,0 -1.43,0.58 -1.57,1.2 -0.02,0.09 0.02,0.17 0.1,0.2l0.4 0.12c0.12,0.04 0.2,-0.02 0.25,-0.15 0.12,-0.3 0.34,-0.64 0.81,-0.64 0.38,0 0.7,0.24 0.7,0.65 0,0.4 -0.32,0.74 -0.85,1.21l-1.22 1.08c-0.04,0.03 -0.1,0.1 -0.1,0.23l0 0.38c0,0.07 0.06,0.13 0.13,0.13l2.8 0zm2.04 0.09c1.01,0 1.68,-0.69 1.68,-1.52 0,-0.87 -0.68,-1.4 -1.46,-1.4 -0.33,0 -0.63,0.09 -0.88,0.26l0.08 -1 1.89 0c0.07,0 0.14,-0.06 0.14,-0.14l0 -0.47c0,-0.07 -0.06,-0.14 -0.14,-0.14l-2.4 0c-0.07,0 -0.13,0.06 -0.14,0.14l-0.15 2.07c-0.01,0.06 0.03,0.11 0.1,0.13l0.47 0.1c0.06,0.01 0.1,0.01 0.16,-0.04 0.15,-0.12 0.38,-0.25 0.68,-0.25 0.44,0 0.82,0.27 0.82,0.75 0,0.44 -0.37,0.78 -0.87,0.78 -0.42,0 -0.66,-0.18 -0.91,-0.46 -0.06,-0.07 -0.17,-0.11 -0.27,-0.02l-0.3 0.24c-0.08,0.06 -0.1,0.15 -0.05,0.23 0.28,0.44 0.84,0.73 1.53,0.73zm2.88 -4.43c-0.55,0 -0.85,0.47 -0.85,1.11 0,0.65 0.3,1.13 0.85,1.13 0.55,0 0.85,-0.48 0.85,-1.13 0,-0.64 -0.3,-1.11 -0.85,-1.11zm1.72 0.14l-1.57 4.07c-0.02,0.06 -0.01,0.14 0.08,0.14l0.21 0c0.08,0 0.11,-0.04 0.14,-0.1l1.56 -4.07c0.03,-0.07 0,-0.14 -0.09,-0.14l-0.2 0c-0.07,0 -0.1,0.03 -0.13,0.09zm-2.09 0.99c0,-0.53 0.17,-0.73 0.38,-0.73 0.21,0 0.38,0.2 0.38,0.73 0,0.53 -0.17,0.72 -0.38,0.72 -0.21,0 -0.38,-0.19 -0.38,-0.72zm2.65 1.04c-0.55,0 -0.85,0.47 -0.85,1.11 0,0.65 0.3,1.13 0.85,1.13 0.55,0 0.85,-0.47 0.85,-1.13 0,-0.64 -0.3,-1.11 -0.85,-1.11zm-0.38 1.13c0,-0.54 0.16,-0.74 0.38,-0.74 0.21,0 0.38,0.2 0.38,0.74 0,0.53 -0.17,0.72 -0.38,0.72 -0.22,0 -0.38,-0.19 -0.38,-0.72z"/>
  </g>
 </g>
</svg>
