<?xml version="1.0" encoding="UTF-8"?>
<!DOCTYPE svg PUBLIC "-//W3C//DTD SVG 1.1//EN" "http://www.w3.org/Graphics/SVG/1.1/DTD/svg11.dtd">
<!-- Creator: CorelDRAW 2019 (64-Bit) -->
<svg xmlns="http://www.w3.org/2000/svg" xml:space="preserve" width="2.4336mm" height="2.4154mm" version="1.1" style="shape-rendering:geometricPrecision; text-rendering:geometricPrecision; image-rendering:optimizeQuality; fill-rule:evenodd; clip-rule:evenodd"
viewBox="0 0 8.36 8.3"
 xmlns:xlink="http://www.w3.org/1999/xlink">
 <defs>
  <style type="text/css">
   <![CDATA[
    .str0 {stroke:#677DA3;stroke-width:0.29;stroke-miterlimit:22.9256}
    .fil0 {fill:#7BA0FF;fill-rule:nonzero}
   ]]>
  </style>
 </defs>
 <g id="Layer_x0020_1">
  <metadata id="CorelCorpID_0Corel-Layer"/>
  <g id="_1963581525184">
   <path class="fil0 str0" d="M7.14 4.46l-3.31 0 0 -3.31c0,-0.07 -0.06,-0.13 -0.13,-0.13 -1.97,0 -3.56,1.6 -3.56,3.56 0,1.97 1.6,3.56 3.56,3.56 1.97,0 3.56,-1.6 3.56,-3.56 0,-0.07 -0.06,-0.13 -0.13,-0.13zm-3.44 3.44c-1.83,0 -3.31,-1.48 -3.31,-3.31 -0,-1.78 1.41,-3.24 3.18,-3.31l0 3.31c0,0.07 0.06,0.13 0.13,0.13l3.31 0c-0.07,1.78 -1.53,3.18 -3.31,3.18z"/>
   <path class="fil0 str0" d="M4.65 0.15c-0.07,0 -0.13,0.06 -0.13,0.13l0 3.44c0,0.07 0.06,0.13 0.13,0.13l3.44 0c0.07,0 0.13,-0.06 0.13,-0.13 -0,-1.97 -1.6,-3.56 -3.56,-3.56zm0.13 3.44l0 -3.18c1.73,0.07 3.11,1.45 3.18,3.18l-3.18 0z"/>
  </g>
 </g>
</svg>
