{
   "Alerts":[
      {
         "Alert ID":"A67523",
         "Location":"Ground floor, Zone 1",
         "DeviceType":"Safety Vest",
         "lastAlertMessage":"Low Battery, Zone 1",
         "lastAlertTimestamp":"14:55",
         "Tag ID":"T6546",
         "Line Descriptor 1":"Device Type : Safety Vest",
         "Line Descriptor 2":"Tag ID : T6546",
         "Line Descriptor 3":"Current user : Karret Wil",
         "sensorNotificationIcon":"Low Battery, Zone 1-2.svg",
         "sensorImageIcon":"Low Battery, Zone 1-1.svg",
         "x-coordinate":"739",
         "y-coordinate":"287"
      },
      {
         "Alert ID":"A845678",
         "Location":"Level 4, Zone 2",
         "DeviceType":"Camera",
         "lastAlertMessage":"Low Bandwidth, Zone 2",
         "lastAlertTimestamp":"14:35",
         "Tag ID":"T7734",
         "Line Descriptor 1":"Device Location : Level 4, Zone 2",
         "Line Descriptor 2":"Device Type : Camera",
         "Line Descriptor 3":"Tag ID : T7734",
         "sensorNotificationIcon":"Low network  bandwidth, Zone 2-2.svg",
         "sensorImageIcon":"Low network  bandwidth, Zone 2-1.svg",
         "x-coordinate":"854",
         "y-coordinate":"150"
      },
      {
         "Alert ID":"A17234",
         "Location":"Level 5, Zone 1",
         "DeviceType":"Drone",
         "lastAlertMessage":"Low Battery, Zone 1",
         "lastAlertTimestamp":"14:20",
         "Tag ID":"T0546",
         "Line Descriptor 1":"Device Location : Drone 3, Zone 1",
         "Line Descriptor 2":"Device Type : Drone",
         "Line Descriptor 3":"Tag ID : T0546",
         "sensorNotificationIcon":"Low Battery, Tag Number - 546 -2.svg",
         "sensorImageIcon":"Low Battery, Tag Number - 546 -1.svg",
         "x-coordinate":"858",
         "y-coordinate":"138"
      },
      {
         "Alert ID":"A20987",
         "Location":"Level 1, Zone 2",
         "DeviceType":"Lidars",
         "lastAlertMessage":"Alignment Issues,Zone 2",
         "lastAlertTimestamp":"14:10",
         "Tag ID":"T4890",
         "Line Descriptor 1":"Device Location : Level 1, Zone 2",
         "Line Descriptor 2":"Device Type : Lidars",
         "Line Descriptor 3":"Tag ID : T4890",
         "sensorNotificationIcon":"Alignment Issue, Zone 3-2.svg",
         "sensorImageIcon":"Alignment Issue, Zone 3-1.svg",
         "x-coordinate":"251",
         "y-coordinate":"140"
      },
      {
         "Alert ID":"A80670",
         "Location":"Ground floor, Zone 4",
         "DeviceType":"Realwear Device",
         "lastAlertMessage":"Update Malfunction, Zone 4",
         "lastAlertTimestamp":"13:34",
         "Tag ID":"T0564",
         "Line Descriptor 1":"Device Location : Ground floor, Zone 4",
         "Line Descriptor 2":"Device Type : Realwear Device",
         "Line Descriptor 3":"Tag ID : T0564",
         "sensorNotificationIcon":"Low Bandwidth, Zone 5-2.svg",
         "sensorImageIcon":"Low Bandwidth, Zone 5-1.svg",
         "x-coordinate":"956",
         "y-coordinate":"240"
      },
      {
         "Alert ID":"A36850",
         "Location":"Ground floor, Zone 3",
         "DeviceType":"Asset Tag",
         "lastAlertMessage":"Low Bandwidth, Zone 3",
         "lastAlertTimestamp":"13:26",
         "Tag ID":"T3860",
         "Line Descriptor 1":"Device Location : Ground floor, Zone 3",
         "Line Descriptor 2":"Device Type : Asset Tag",
         "Line Descriptor 3":"Tag ID : T3860",
         "sensorNotificationIcon":"Tracking Tag Offline, Zone 8-2.svg",
         "sensorImageIcon":"Tracking Tag Offline, Zone 8-1.svg",
         "x-coordinate":"225",
         "y-coordinate":"487"
      },
      {
         "Alert ID":"A43566",
         "Location":"Level 2, Zone 3",
         "DeviceType":"Safety Vest",
         "lastAlertMessage":"Sensor Offline, Zone 3",
         "lastAlertTimestamp":"13:05",
         "Tag ID":"T8345",
         "Line Descriptor 1":"Device Type : Safety Vest",
         "Line Descriptor 2":"Tag ID : T8345",
         "Line Descriptor 3":"Current user : Lucas Dave",
         "sensorNotificationIcon":"Low Battery, Zone 1-2.svg",
         "sensorImageIcon":"Low Battery, Zone 1-1.svg",
         "x-coordinate":"66",
         "y-coordinate":"570"
      },
      {
         "Alert ID":"A106378",
         "Location":"Level 1, Zone 3",
         "DeviceType":"Camera",
         "lastAlertMessage":"Camera Offline, Zone 3",
         "lastAlertTimestamp":"13:00",
         "Tag ID":"T8734",
         "Line Descriptor 1":"Device Location : Level 1, Zone 3",
         "Line Descriptor 2":"Device Type : Camera",
         "Line Descriptor 3":"Tag ID : T8734",
         "sensorNotificationIcon":"Low network  bandwidth, Zone 2-2.svg",
         "sensorImageIcon":"Low network  bandwidth, Zone 2-1.svg",
         "x-coordinate":"496",
         "y-coordinate":"164"
      },
      {
         "Alert ID":"A60056",
         "Location":"Level 1, Zone 3",
         "DeviceType":"Drone",
         "lastAlertMessage":"Low Bandwidth, Zone 3",
         "lastAlertTimestamp":"12:58",
         "Tag ID":"T1999",
         "Line Descriptor 1":"Device Location : Level 1, Zone 3",
         "Line Descriptor 2":"Device Type : Drone",
         "Line Descriptor 3":"Tag ID : T1999",
         "sensorNotificationIcon":"Low Battery, Tag Number - 546 -2.svg",
         "sensorImageIcon":"Low Battery, Tag Number - 546 -1.svg",
         "x-coordinate":"978",
         "y-coordinate":"150"
      },
      {
         "Alert ID":"A56234",
         "Location":"Level 2, Zone 1",
         "DeviceType":"Lidars",
         "lastAlertMessage":"Lidar Offline, Zone 1",
         "lastAlertTimestamp":"12:42",
         "Tag ID":"T7389",
         "Line Descriptor 1":"Device Location : Level 2, Zone 1",
         "Line Descriptor 2":"Device Type : Lidars",
         "Line Descriptor 3":"Tag ID : T7389",
         "sensorNotificationIcon":"Alignment Issue, Zone 3-2.svg",
         "sensorImageIcon":"Alignment Issue, Zone 3-1.svg",
         "x-coordinate":"849",
         "y-coordinate":"259"
      },
      {
         "Alert ID":"A200345",
         "Location":"Level 1, Zone 1",
         "DeviceType":"Realwear Device",
         "lastAlertMessage":"Low Battery, Zone 1",
         "lastAlertTimestamp":"12:29",
         "Tag ID":"T1001",
         "Line Descriptor 1":"Device Location : Level 1, Zone 1",
         "Line Descriptor 2":"Device Type : Realwear Device",
         "Line Descriptor 3":"Tag ID : T1001",
         "sensorNotificationIcon":"Low Bandwidth, Zone 5-2.svg",
         "sensorImageIcon":"Low Bandwidth, Zone 5-1.svg",
         "x-coordinate":"559",
         "y-coordinate":"265"
      },
      {
         "Alert ID":"A61098",
         "Location":"Level 1, Zone 4",
         "DeviceType":"Asset Tag",
         "lastAlertMessage":"Tag Offline, Zone 4",
         "lastAlertTimestamp":"12:16",
         "Tag ID":"T1598",
         "Line Descriptor 1":"Device Location : Level 1, Zone 4",
         "Line Descriptor 2":"Device Type : Asset Tag",
         "Line Descriptor 3":"Tag ID : T1598",
         "sensorNotificationIcon":"Tracking Tag Offline, Zone 8-2.svg",
         "sensorImageIcon":"Tracking Tag Offline, Zone 8-1.svg",
         "x-coordinate":"263",
         "y-coordinate":"389"
      },
      {
         "Alert ID":"A52356",
         "Location":"Level 4, Zone 3",
         "DeviceType":"Safety Vest",
         "lastAlertMessage":"Low Network Bandwidth, Zone 3",
         "lastAlertTimestamp":"12:05",
         "Tag ID":"T4321",
         "Line Descriptor 1":"Device Type : Safety Vest",
         "Line Descriptor 2":"Tag ID : T4321",
         "Line Descriptor 3":"Current user : Jack Harry",
         "sensorNotificationIcon":"Low Battery, Zone 1-2.svg",
         "sensorImageIcon":"Low Battery, Zone 1-1.svg",
         "x-coordinate":"14",
         "y-coordinate":"209"
      },
      {
         "Alert ID":"A507081",
         "Location":"Ground Floor, Gate 4",
         "DeviceType":"Camera",
         "lastAlertMessage":"Low Bandwidth, Gate 4",
         "lastAlertTimestamp":"11:56",
         "Tag ID":"T5656",
         "Line Descriptor 1":"Device Location : Ground Floor, Gate 4",
         "Line Descriptor 2":"Device Type : Camera",
         "Line Descriptor 3":"Tag ID : T5656",
         "sensorNotificationIcon":"Low network  bandwidth, Zone 2-2.svg",
         "sensorImageIcon":"Low network  bandwidth, Zone 2-1.svg",
         "x-coordinate":"484",
         "y-coordinate":"408"
      },
      {
         "Alert ID":"A086001",
         "Location":"Level 4, Zone 2",
         "DeviceType":"Drone",
         "lastAlertMessage":"Poor Connectivity, Zone 2",
         "lastAlertTimestamp":"11:44",
         "Tag ID":"T1845",
         "Line Descriptor 1":"Device Location : Level 4, Zone 2",
         "Line Descriptor 2":"Device Type : Drone",
         "Line Descriptor 3":"Tag ID : T1845",
         "sensorNotificationIcon":"Low Battery, Tag Number - 546 -2.svg",
         "sensorImageIcon":"Low Battery, Tag Number - 546 -1.svg",
         "x-coordinate":"980",
         "y-coordinate":"341"
      },
      {
         "Alert ID":"A690345",
         "Location":"Level 4, Zone 3",
         "DeviceType":"Lidars",
         "lastAlertMessage":"Low Battery, Zone 3",
         "lastAlertTimestamp":"11:28",
         "Tag ID":"T8090",
         "Line Descriptor 1":"Device Location : Level 4, Zone 3",
         "Line Descriptor 2":"Device Type : Lidars",
         "Line Descriptor 3":"Tag ID : T8090",
         "sensorNotificationIcon":"Alignment Issue, Zone 3-2.svg",
         "sensorImageIcon":"Alignment Issue, Zone 3-1.svg",
         "x-coordinate":"57",
         "y-coordinate":"232"
      },
      {
         "Alert ID":"A034609",
         "Location":"Level 2, Zone 5",
         "DeviceType":"Realwear Device",
         "lastAlertMessage":"Low BandWidth, Zone 5",
         "lastAlertTimestamp":"11:13",
         "Tag ID":"T2030",
         "Line Descriptor 1":"Device Location : Level 2, Zone 5",
         "Line Descriptor 2":"Device Type : Realwear Device",
         "Line Descriptor 3":"Tag ID : T2030",
         "sensorNotificationIcon":"Low Bandwidth, Zone 5-2.svg",
         "sensorImageIcon":"Low Bandwidth, Zone 5-1.svg",
         "x-coordinate":"650",
         "y-coordinate":"302"
      },
      {
         "Alert ID":"A229845",
         "Location":"Level 3, Zone 2",
         "DeviceType":"Asset Tag",
         "lastAlertMessage":"Poor Connectivity, Zone 2",
         "lastAlertTimestamp":"11:00",
         "Tag ID":"T1734",
         "Line Descriptor 1":"Device Location : Level 3, Zone 2",
         "Line Descriptor 2":"Device Type : Asset Tag",
         "Line Descriptor 3":"Tag ID : T1734",
         "sensorNotificationIcon":"Tracking Tag Offline, Zone 8-2.svg",
         "sensorImageIcon":"Tracking Tag Offline, Zone 8-1.svg",
         "x-coordinate":"730",
         "y-coordinate":"321"
      },
      {
         "Alert ID":"A062300",
         "Location":"Level 2, Zone 2",
         "DeviceType":"Safety Vest",
         "lastAlertMessage":"Poor Connectivity, Zone 2",
         "lastAlertTimestamp":"10:51",
         "Tag ID":"T6546",
         "Line Descriptor 1":"Device Type : Safety Vest",
         "Line Descriptor 2":"Tag ID : T6546",
         "Line Descriptor 3":"Current user : Sam Wilson",
         "sensorNotificationIcon":"Low Battery, Zone 1-2.svg",
         "sensorImageIcon":"Low Battery, Zone 1-1.svg",
         "x-coordinate":"59",
         "y-coordinate":"190"
      },
      {
         "Alert ID":"A203300",
         "Location":"Level 3, Exit 1",
         "DeviceType":"Camera",
         "lastAlertMessage":"Poor Connectivity, Exit 1",
         "lastAlertTimestamp":"10:45",
         "Tag ID":"T2908",
         "Line Descriptor 1":"Device Location : Level 3, Exit 1",
         "Line Descriptor 2":"Device Type : Camera",
         "Line Descriptor 3":"Tag ID : T2908",
         "sensorNotificationIcon":"Low network  bandwidth, Zone 2-2.svg",
         "sensorImageIcon":"Low network  bandwidth, Zone 2-1.svg",
         "x-coordinate":"591",
         "y-coordinate":"217"
      },
      {
         "Alert ID":"A902030",
         "Location":"Level 2, Zone 4",
         "DeviceType":"Drone",
         "lastAlertMessage":"Drone Offline, Zone 4",
         "lastAlertTimestamp":"10:37",
         "Tag ID":"T1952",
         "Line Descriptor 1":"Device Location : Level 2, Zone 4",
         "Line Descriptor 2":"Device Type : Drone",
         "Line Descriptor 3":"Tag ID : T1952",
         "sensorNotificationIcon":"Low Battery, Tag Number - 546 -2.svg",
         "sensorImageIcon":"Low Battery, Tag Number - 546 -1.svg",
         "x-coordinate":"296",
         "y-coordinate":"300"
      },
      {
         "Alert ID":"A578345",
         "Location":"Level 1, Zone 1",
         "DeviceType":"Lidars",
         "lastAlertMessage":"Low Bandwidth, Zone 1",
         "lastAlertTimestamp":"10:26",
         "Tag ID":"T9008",
         "Line Descriptor 1":"Device Location : Level 1, Zone 1",
         "Line Descriptor 2":"Device Type : Lidars",
         "Line Descriptor 3":"Tag ID : T9008",
         "sensorNotificationIcon":"Alignment Issue, Zone 3-2.svg",
         "sensorImageIcon":"Alignment Issue, Zone 3-1.svg",
         "x-coordinate":"328",
         "y-coordinate":"465"
      },
      {
         "Alert ID":"A100200",
         "Location":"Level 3, Zone 1",
         "DeviceType":"Realwear Device",
         "lastAlertMessage":"Connectivity Issue, Zone 1",
         "lastAlertTimestamp":"10:15",
         "Tag ID":"T7989",
         "Line Descriptor 1":"Device Location : Level 3, Zone 1",
         "Line Descriptor 2":"Device Type : Realwear Device",
         "Line Descriptor 3":"Tag ID : T7989",
         "sensorNotificationIcon":"Low Bandwidth, Zone 5-2.svg",
         "sensorImageIcon":"Low Bandwidth, Zone 5-1.svg",
         "x-coordinate":"675",
         "y-coordinate":"410"
      },
      {
         "Alert ID":"A659078",
         "Location":"Level 2, Zone 1",
         "DeviceType":"Asset Tag",
         "lastAlertMessage":"Update Malfuntion , Zone 1",
         "lastAlertTimestamp":"10:05",
         "Tag ID":"T1245",
         "Line Descriptor 1":"Device Location : Level 2, Zone 1",
         "Line Descriptor 2":"Device Type : Asset Tag",
         "Line Descriptor 3":"Tag ID : T1245",
         "sensorNotificationIcon":"Tracking Tag Offline, Zone 8-2.svg",
         "sensorImageIcon":"Tracking Tag Offline, Zone 8-1.svg",
         "x-coordinate":"550",
         "y-coordinate":"430"
      },
      {
         "Alert ID":"A00865",
         "Location":"Level 1, Zone 5",
         "DeviceType":"Safety Vest",
         "lastAlertMessage":"Proximity Sensor Offline, Zone 5",
         "lastAlertTimestamp":"09:48",
         "Tag ID":"T2345",
         "Line Descriptor 1":"Device Type : Safety Vest",
         "Line Descriptor 2":"Tag ID : T2345",
         "Line Descriptor 3":"Current user : John Britto",
         "sensorNotificationIcon":"Low Battery, Zone 1-2.svg",
         "sensorImageIcon":"Low Battery, Zone 1-1.svg",
         "x-coordinate":"592",
         "y-coordinate":"136"
      },
      {
         "Alert ID":"A507080",
         "Location":"Level 1, Zone 1",
         "DeviceType":"Camera",
         "lastAlertMessage":"Alignment Issues,Zone 1",
         "lastAlertTimestamp":"09:36",
         "Tag ID":"T1966",
         "Line Descriptor 1":"Device Location : Level 1, Zone 1",
         "Line Descriptor 2":"Device Type : Camera",
         "Line Descriptor 3":"Tag ID : T1966",
         "sensorNotificationIcon":"Low network  bandwidth, Zone 2-2.svg",
         "sensorImageIcon":"Low network  bandwidth, Zone 2-1.svg",
         "x-coordinate":"914",
         "y-coordinate":"313"
      },
      {
         "Alert ID":"A312564",
         "Location":"Ground floor, Zone 1",
         "DeviceType":"Drone",
         "lastAlertMessage":"Connectivity Failed, Zone 1",
         "lastAlertTimestamp":"09:22",
         "Tag ID":"T1834",
         "Line Descriptor 1":"Device Location : Ground floor, Zone 1",
         "Line Descriptor 2":"Device Type : Drone",
         "Line Descriptor 3":"Tag ID : T1834",
         "sensorNotificationIcon":"Low Battery, Tag Number - 546 -2.svg",
         "sensorImageIcon":"Low Battery, Tag Number - 546 -1.svg",
         "x-coordinate":"410",
         "y-coordinate":"169"
      },
      {
         "Alert ID":"A634509",
         "Location":"Level 3, Zone 5",
         "DeviceType":"Lidars",
         "lastAlertMessage":"Poor Connectivity, Zone 5",
         "lastAlertTimestamp":"09:17",
         "Tag ID":"T2078",
         "Line Descriptor 1":"Device Location : Level 3, Zone 5",
         "Line Descriptor 2":"Device Type : Lidars",
         "Line Descriptor 3":"Tag ID : T2078",
         "sensorNotificationIcon":"Alignment Issue, Zone 3-2.svg",
         "sensorImageIcon":"Alignment Issue, Zone 3-1.svg",
         "x-coordinate":"986",
         "y-coordinate":"412"
      },
      {
         "Alert ID":"A739476",
         "Location":"Level 4, Zone 4",
         "DeviceType":"Realwear Device",
         "lastAlertMessage":"Device Offline, Zone 4",
         "lastAlertTimestamp":"09:03",
         "Tag ID":"T6008",
         "Line Descriptor 1":"Device Location : Level 4, Zone 4",
         "Line Descriptor 2":"Device Type : Realwear Device",
         "Line Descriptor 3":"Tag ID : T6008",
         "sensorNotificationIcon":"Low Bandwidth, Zone 5-2.svg",
         "sensorImageIcon":"Low Bandwidth, Zone 5-1.svg",
         "x-coordinate":"779",
         "y-coordinate":"271"
      },
      {
         "Alert ID":"A500129",
         "Location":"Level 4, Zone 3",
         "DeviceType":"Camera",
         "lastAlertMessage":"Motion Detection, Zone 3",
         "lastAlertTimestamp":"08:30",
         "Tag ID":"T1966",
         "Line Descriptor 1":"Device Location : Level 1, Entry 1",
         "Line Descriptor 2":"Device Type : Camera",
         "Line Descriptor 3":"Tag ID : T1966",
         "sensorNotificationIcon":"Low network  bandwidth, Zone 2-2.svg",
         "sensorImageIcon":"Low network  bandwidth, Zone 2-1.svg",
         "x-coordinate":"348",
         "y-coordinate":"170"
      },
      {
         "Alert ID":"A825094",
         "Location":"Level 1, Zone 4",
         "DeviceType":"Lidars",
         "lastAlertMessage":"Update Malfunction, Zone 4",
         "lastAlertTimestamp":"08:15",
         "Tag ID":"T5566",
         "Line Descriptor 1":"Device Location : Level 1, Zone 4",
         "Line Descriptor 2":"Device Type : Lidars",
         "Line Descriptor 3":"Tag ID : T5566",
         "sensorNotificationIcon":"Alignment Issue, Zone 3-2.svg",
         "sensorImageIcon":"Alignment Issue, Zone 3-1.svg",
         "x-coordinate":"415",
         "y-coordinate":"200"
      },
      {
         "Alert ID":"A200890",
         "Location":"Ground Floor, Zone 4",
         "DeviceType":"Camera",
         "lastAlertMessage":"Connectivity Failed, Zone 4",
         "lastAlertTimestamp":"08:10",
         "Tag ID":"T1080",
         "Line Descriptor 1":"Device Location : Ground Floor, Zone 4",
         "Line Descriptor 2":"Device Type : Camera",
         "Line Descriptor 3":"Tag ID : T1080",
         "sensorNotificationIcon":"Low network  bandwidth, Zone 2-2.svg",
         "sensorImageIcon":"Low network  bandwidth, Zone 2-1.svg",
         "x-coordinate":"610",
         "y-coordinate":"293"
      }
   ]
}